Machine Learning Models Exercise – Vincent Nguyen’s Data Analysis Portfolio
…
# Tune grid
set.seed(1234)
lasso_tune_res <- tune_grid(
  lasso_wf %>% add_model(tune_spec),
  resamples = lasso_resample,
  grid = lasso_grid,
  metrics = metric_set(rmse, rsq)
)

# collect metrics
lasso_tune_res %>%
  collect_metrics()

# A tibble: 50 × 7
     penalty .metric .estimator  mean     n std_err .config              
       <dbl> <chr>   <chr>      <dbl> <int>   <dbl> <chr>                
 1 0.00001   <NA>    <NA>          NA    NA      NA Preprocessor1_Model01
 2 0.0000139 <NA>    <NA>          NA    NA      NA Preprocessor1_Model02
 3 0.0000193 <NA>    <NA>          NA    NA      NA Preprocessor1_Model03
 4 0.0000268 <NA>    <NA>          NA    NA      NA Preprocessor1_Model04
 5 0.0000373 <NA>    <NA>          NA    NA      NA Preprocessor1_Model05
 6 0.0000518 <NA>    <NA>          NA    NA      NA Preprocessor1_Model06
 7 0.0000720 <NA>    <NA>          NA    NA      NA Preprocessor1_Model07
 8 0.0001    <NA>    <NA>          NA    NA      NA Preprocessor1_Model08
 9 0.000139  <NA>    <NA>          NA    NA      NA Preprocessor1_Model09
10 0.000193  <NA>    <NA>          NA    NA      NA Preprocessor1_Model10
# ℹ 40 more rows
…
