R Coding Exercise – Vincent Nguyen’s Data Analysis Portfolio
…
This part of the exercise is titled, “More data processing”. In this part, the data is inspected to figure out which years have the most missing counts. The assignment chooses the year 2000 to filter the data. I create an object called africadata_twothousand which contains the filtered data.

na_count_per_year <- africadata %>%
  filter(is.na(infant_mortality)) %>%
  group_by(year) %>%
  summarize(na_count_per_year = n())

# print result
print(na_count_per_year)

# A tibble: 23 × 2
    year na_count_per_year
   <int>             <int>
 1  1960                10
 2  1961                17
 3  1962                16
 4  1963                16
 5  1964                15
 6  1965                14
 7  1966                13
 8  1967                11
 9  1968                11
10  1969                 7
# ℹ 13 more rows
…
